-- Merging decision tree log ---
manifest
ADDED from C:\Users\christos\android\payment-app\android\app\src\main\AndroidManifest.xml:1:1-45:12
INJECTED from C:\Users\christos\android\payment-app\android\app\src\main\AndroidManifest.xml:1:1-45:12
INJECTED from C:\Users\christos\android\payment-app\android\app\src\main\AndroidManifest.xml:1:1-45:12
INJECTED from C:\Users\christos\android\payment-app\android\app\src\main\AndroidManifest.xml:1:1-45:12
MERGED from C:\Users\christos\android\payment-app\android\app\src\main\AndroidManifest.xml:1:1-45:12
MERGED from [:google_maps_flutter] C:\Users\christos\android\payment-app\build\google_maps_flutter\intermediates\library_manifest\debug\AndroidManifest.xml:2:1-7:12
MERGED from [:flutter_plugin_android_lifecycle] C:\Users\christos\android\payment-app\build\flutter_plugin_android_lifecycle\intermediates\library_manifest\debug\AndroidManifest.xml:2:1-7:12
MERGED from [:geolocator] C:\Users\christos\android\payment-app\build\geolocator\intermediates\library_manifest\debug\AndroidManifest.xml:2:1-7:12
MERGED from [com.google.android.gms:play-services-maps:17.0.0] C:\Users\christos\.gradle\caches\transforms-2\files-2.1\faf3edd0a0a40b32e6c32885cc662e42\jetified-play-services-maps-17.0.0\AndroidManifest.xml:17:1-38:12
MERGED from [com.google.android.gms:play-services-location:17.0.0] C:\Users\christos\.gradle\caches\transforms-2\files-2.1\6ecbd03c0ba003b6c6cab88140d4ae56\jetified-play-services-location-17.0.0\AndroidManifest.xml:2:1-9:12
MERGED from [com.google.android.gms:play-services-base:17.0.0] C:\Users\christos\.gradle\caches\transforms-2\files-2.1\2631375de80937c90cd3a1032ab35871\jetified-play-services-base-17.0.0\AndroidManifest.xml:17:1-29:12
MERGED from [com.google.android.gms:play-services-places-placereport:17.0.0] C:\Users\christos\.gradle\caches\transforms-2\files-2.1\851cd8c44ebf76c5b47504ad4cc94222\jetified-play-services-places-placereport-17.0.0\AndroidManifest.xml:17:1-24:12
MERGED from [com.google.android.gms:play-services-tasks:17.0.0] C:\Users\christos\.gradle\caches\transforms-2\files-2.1\b7a1c6e780b5901c5c6ba597df670b7d\jetified-play-services-tasks-17.0.0\AndroidManifest.xml:2:1-9:12
MERGED from [com.google.android.gms:play-services-basement:17.0.0] C:\Users\christos\.gradle\caches\transforms-2\files-2.1\dcffa74d8d015470a7eae32b9eb648c7\jetified-play-services-basement-17.0.0\AndroidManifest.xml:17:1-28:12
MERGED from [androidx.fragment:fragment:1.1.0] C:\Users\christos\.gradle\caches\transforms-2\files-2.1\ba80674a1a5fdce2b1b29eea5683af77\fragment-1.1.0\AndroidManifest.xml:17:1-24:12
MERGED from [androidx.viewpager:viewpager:1.0.0] C:\Users\christos\.gradle\caches\transforms-2\files-2.1\2f70304b103eacfab05dbe55739e869f\viewpager-1.0.0\AndroidManifest.xml:17:1-22:12
MERGED from [androidx.loader:loader:1.0.0] C:\Users\christos\.gradle\caches\transforms-2\files-2.1\49dee3543bc65746b6bba9f83aa0b18a\loader-1.0.0\AndroidManifest.xml:17:1-22:12
MERGED from [androidx.activity:activity:1.0.0] C:\Users\christos\.gradle\caches\transforms-2\files-2.1\68865d38a53fb5c240061f062e474515\jetified-activity-1.0.0\AndroidManifest.xml:17:1-24:12
MERGED from [androidx.customview:customview:1.0.0] C:\Users\christos\.gradle\caches\transforms-2\files-2.1\86cf751735e9e9dd0416cce35c4a71a1\customview-1.0.0\AndroidManifest.xml:17:1-22:12
MERGED from [androidx.core:core:1.1.0] C:\Users\christos\.gradle\caches\transforms-2\files-2.1\d67cd79abd1ca209502f51c69d23182b\core-1.1.0\AndroidManifest.xml:17:1-26:12
MERGED from [androidx.lifecycle:lifecycle-runtime:2.2.0] C:\Users\christos\.gradle\caches\transforms-2\files-2.1\b37a656be7da34e79d326523a32fbcaa\lifecycle-runtime-2.2.0\AndroidManifest.xml:17:1-24:12
MERGED from [androidx.savedstate:savedstate:1.0.0] C:\Users\christos\.gradle\caches\transforms-2\files-2.1\29e9e6ac99026fff5bb21139b2ad74ac\jetified-savedstate-1.0.0\AndroidManifest.xml:17:1-24:12
MERGED from [androidx.lifecycle:lifecycle-livedata:2.0.0] C:\Users\christos\.gradle\caches\transforms-2\files-2.1\15faa7fdc535e832982b4615d300cb77\lifecycle-livedata-2.0.0\AndroidManifest.xml:17:1-22:12
MERGED from [androidx.lifecycle:lifecycle-livedata-core:2.0.0] C:\Users\christos\.gradle\caches\transforms-2\files-2.1\033c1099bb4cd11be9138377da501d59\lifecycle-livedata-core-2.0.0\AndroidManifest.xml:17:1-22:12
MERGED from [androidx.arch.core:core-runtime:2.0.0] C:\Users\christos\.gradle\caches\transforms-2\files-2.1\943631e3c5a6dfa67bece88add1d3fe3\core-runtime-2.0.0\AndroidManifest.xml:17:1-22:12
MERGED from [androidx.versionedparcelable:versionedparcelable:1.1.0] C:\Users\christos\.gradle\caches\transforms-2\files-2.1\af9af86a2035b10a0514f89f66cf8a9a\versionedparcelable-1.1.0\AndroidManifest.xml:17:1-27:12
MERGED from [androidx.lifecycle:lifecycle-viewmodel:2.1.0] C:\Users\christos\.gradle\caches\transforms-2\files-2.1\2b6a4e71d38d3b36d0c903aac26cfd25\lifecycle-viewmodel-2.1.0\AndroidManifest.xml:17:1-22:12
INJECTED from C:\Users\christos\android\payment-app\android\app\src\debug\AndroidManifest.xml:1:1-7:12
INJECTED from C:\Users\christos\android\payment-app\android\app\src\debug\AndroidManifest.xml:1:1-7:12
INJECTED from C:\Users\christos\android\payment-app\android\app\src\debug\AndroidManifest.xml:1:1-7:12
	package
		ADDED from C:\Users\christos\android\payment-app\android\app\src\main\AndroidManifest.xml:2:5-37
		INJECTED from C:\Users\christos\android\payment-app\android\app\src\main\AndroidManifest.xml
		INJECTED from C:\Users\christos\android\payment-app\android\app\src\debug\AndroidManifest.xml
	android:versionName
		INJECTED from C:\Users\christos\android\payment-app\android\app\src\main\AndroidManifest.xml
		ADDED from C:\Users\christos\android\payment-app\android\app\src\main\AndroidManifest.xml:1:1-45:12
		INJECTED from C:\Users\christos\android\payment-app\android\app\src\debug\AndroidManifest.xml
	android:versionCode
		INJECTED from C:\Users\christos\android\payment-app\android\app\src\main\AndroidManifest.xml
		ADDED from C:\Users\christos\android\payment-app\android\app\src\main\AndroidManifest.xml:1:1-45:12
		INJECTED from C:\Users\christos\android\payment-app\android\app\src\debug\AndroidManifest.xml
	xmlns:android
		ADDED from C:\Users\christos\android\payment-app\android\app\src\main\AndroidManifest.xml:1:11-69
application
ADDED from C:\Users\christos\android\payment-app\android\app\src\main\AndroidManifest.xml:3:4-43:19
MERGED from [com.google.android.gms:play-services-maps:17.0.0] C:\Users\christos\.gradle\caches\transforms-2\files-2.1\faf3edd0a0a40b32e6c32885cc662e42\jetified-play-services-maps-17.0.0\AndroidManifest.xml:30:5-36:19
MERGED from [com.google.android.gms:play-services-maps:17.0.0] C:\Users\christos\.gradle\caches\transforms-2\files-2.1\faf3edd0a0a40b32e6c32885cc662e42\jetified-play-services-maps-17.0.0\AndroidManifest.xml:30:5-36:19
MERGED from [com.google.android.gms:play-services-location:17.0.0] C:\Users\christos\.gradle\caches\transforms-2\files-2.1\6ecbd03c0ba003b6c6cab88140d4ae56\jetified-play-services-location-17.0.0\AndroidManifest.xml:7:5-20
MERGED from [com.google.android.gms:play-services-location:17.0.0] C:\Users\christos\.gradle\caches\transforms-2\files-2.1\6ecbd03c0ba003b6c6cab88140d4ae56\jetified-play-services-location-17.0.0\AndroidManifest.xml:7:5-20
MERGED from [com.google.android.gms:play-services-base:17.0.0] C:\Users\christos\.gradle\caches\transforms-2\files-2.1\2631375de80937c90cd3a1032ab35871\jetified-play-services-base-17.0.0\AndroidManifest.xml:22:5-27:19
MERGED from [com.google.android.gms:play-services-base:17.0.0] C:\Users\christos\.gradle\caches\transforms-2\files-2.1\2631375de80937c90cd3a1032ab35871\jetified-play-services-base-17.0.0\AndroidManifest.xml:22:5-27:19
MERGED from [com.google.android.gms:play-services-places-placereport:17.0.0] C:\Users\christos\.gradle\caches\transforms-2\files-2.1\851cd8c44ebf76c5b47504ad4cc94222\jetified-play-services-places-placereport-17.0.0\AndroidManifest.xml:22:5-20
MERGED from [com.google.android.gms:play-services-places-placereport:17.0.0] C:\Users\christos\.gradle\caches\transforms-2\files-2.1\851cd8c44ebf76c5b47504ad4cc94222\jetified-play-services-places-placereport-17.0.0\AndroidManifest.xml:22:5-20
MERGED from [com.google.android.gms:play-services-tasks:17.0.0] C:\Users\christos\.gradle\caches\transforms-2\files-2.1\b7a1c6e780b5901c5c6ba597df670b7d\jetified-play-services-tasks-17.0.0\AndroidManifest.xml:7:5-20
MERGED from [com.google.android.gms:play-services-tasks:17.0.0] C:\Users\christos\.gradle\caches\transforms-2\files-2.1\b7a1c6e780b5901c5c6ba597df670b7d\jetified-play-services-tasks-17.0.0\AndroidManifest.xml:7:5-20
MERGED from [com.google.android.gms:play-services-basement:17.0.0] C:\Users\christos\.gradle\caches\transforms-2\files-2.1\dcffa74d8d015470a7eae32b9eb648c7\jetified-play-services-basement-17.0.0\AndroidManifest.xml:22:5-26:19
MERGED from [com.google.android.gms:play-services-basement:17.0.0] C:\Users\christos\.gradle\caches\transforms-2\files-2.1\dcffa74d8d015470a7eae32b9eb648c7\jetified-play-services-basement-17.0.0\AndroidManifest.xml:22:5-26:19
MERGED from [androidx.core:core:1.1.0] C:\Users\christos\.gradle\caches\transforms-2\files-2.1\d67cd79abd1ca209502f51c69d23182b\core-1.1.0\AndroidManifest.xml:24:5-89
MERGED from [androidx.core:core:1.1.0] C:\Users\christos\.gradle\caches\transforms-2\files-2.1\d67cd79abd1ca209502f51c69d23182b\core-1.1.0\AndroidManifest.xml:24:5-89
MERGED from [androidx.versionedparcelable:versionedparcelable:1.1.0] C:\Users\christos\.gradle\caches\transforms-2\files-2.1\af9af86a2035b10a0514f89f66cf8a9a\versionedparcelable-1.1.0\AndroidManifest.xml:24:5-25:19
MERGED from [androidx.versionedparcelable:versionedparcelable:1.1.0] C:\Users\christos\.gradle\caches\transforms-2\files-2.1\af9af86a2035b10a0514f89f66cf8a9a\versionedparcelable-1.1.0\AndroidManifest.xml:24:5-25:19
	android:appComponentFactory
		ADDED from [androidx.core:core:1.1.0] C:\Users\christos\.gradle\caches\transforms-2\files-2.1\d67cd79abd1ca209502f51c69d23182b\core-1.1.0\AndroidManifest.xml:24:18-86
	android:label
		ADDED from C:\Users\christos\android\payment-app\android\app\src\main\AndroidManifest.xml:4:9-36
	android:icon
		ADDED from C:\Users\christos\android\payment-app\android\app\src\main\AndroidManifest.xml:5:9-43
activity#pstreampay.payment_app.MainActivity
ADDED from C:\Users\christos\android\payment-app\android\app\src\main\AndroidManifest.xml:6:9-34:20
	android:launchMode
		ADDED from C:\Users\christos\android\payment-app\android\app\src\main\AndroidManifest.xml:8:13-43
	android:hardwareAccelerated
		ADDED from C:\Users\christos\android\payment-app\android\app\src\main\AndroidManifest.xml:11:13-47
	android:windowSoftInputMode
		ADDED from C:\Users\christos\android\payment-app\android\app\src\main\AndroidManifest.xml:12:13-55
	android:configChanges
		ADDED from C:\Users\christos\android\payment-app\android\app\src\main\AndroidManifest.xml:10:13-163
	android:theme
		ADDED from C:\Users\christos\android\payment-app\android\app\src\main\AndroidManifest.xml:9:13-47
	android:name
		ADDED from C:\Users\christos\android\payment-app\android\app\src\main\AndroidManifest.xml:7:13-41
meta-data#io.flutter.embedding.android.NormalTheme
ADDED from C:\Users\christos\android\payment-app\android\app\src\main\AndroidManifest.xml:17:13-20:17
	android:resource
		ADDED from C:\Users\christos\android\payment-app\android\app\src\main\AndroidManifest.xml:19:15-52
	android:name
		ADDED from C:\Users\christos\android\payment-app\android\app\src\main\AndroidManifest.xml:18:15-70
meta-data#io.flutter.embedding.android.SplashScreenDrawable
ADDED from C:\Users\christos\android\payment-app\android\app\src\main\AndroidManifest.xml:26:13-29:17
	android:resource
		ADDED from C:\Users\christos\android\payment-app\android\app\src\main\AndroidManifest.xml:28:15-61
	android:name
		ADDED from C:\Users\christos\android\payment-app\android\app\src\main\AndroidManifest.xml:27:15-79
intent-filter#action:name:android.intent.action.MAIN+category:name:android.intent.category.LAUNCHER
ADDED from C:\Users\christos\android\payment-app\android\app\src\main\AndroidManifest.xml:30:13-33:29
action#android.intent.action.MAIN
ADDED from C:\Users\christos\android\payment-app\android\app\src\main\AndroidManifest.xml:31:17-68
	android:name
		ADDED from C:\Users\christos\android\payment-app\android\app\src\main\AndroidManifest.xml:31:25-66
category#android.intent.category.LAUNCHER
ADDED from C:\Users\christos\android\payment-app\android\app\src\main\AndroidManifest.xml:32:17-76
	android:name
		ADDED from C:\Users\christos\android\payment-app\android\app\src\main\AndroidManifest.xml:32:27-74
meta-data#flutterEmbedding
ADDED from C:\Users\christos\android\payment-app\android\app\src\main\AndroidManifest.xml:37:9-39:33
	android:value
		ADDED from C:\Users\christos\android\payment-app\android\app\src\main\AndroidManifest.xml:39:13-30
	android:name
		ADDED from C:\Users\christos\android\payment-app\android\app\src\main\AndroidManifest.xml:38:13-44
meta-data#com.google.android.geo.API_KEY
ADDED from C:\Users\christos\android\payment-app\android\app\src\main\AndroidManifest.xml:40:13-41:74
	android:value
		ADDED from C:\Users\christos\android\payment-app\android\app\src\main\AndroidManifest.xml:41:17-72
	android:name
		ADDED from C:\Users\christos\android\payment-app\android\app\src\main\AndroidManifest.xml:40:24-69
uses-permission#android.permission.ACCESS_FINE_LOCATION
ADDED from C:\Users\christos\android\payment-app\android\app\src\main\AndroidManifest.xml:44:5-79
	android:name
		ADDED from C:\Users\christos\android\payment-app\android\app\src\main\AndroidManifest.xml:44:22-76
uses-sdk
INJECTED from C:\Users\christos\android\payment-app\android\app\src\main\AndroidManifest.xml reason: use-sdk injection requested
INJECTED from C:\Users\christos\android\payment-app\android\app\src\main\AndroidManifest.xml
INJECTED from C:\Users\christos\android\payment-app\android\app\src\main\AndroidManifest.xml
MERGED from [:google_maps_flutter] C:\Users\christos\android\payment-app\build\google_maps_flutter\intermediates\library_manifest\debug\AndroidManifest.xml:5:5-44
MERGED from [:google_maps_flutter] C:\Users\christos\android\payment-app\build\google_maps_flutter\intermediates\library_manifest\debug\AndroidManifest.xml:5:5-44
MERGED from [:flutter_plugin_android_lifecycle] C:\Users\christos\android\payment-app\build\flutter_plugin_android_lifecycle\intermediates\library_manifest\debug\AndroidManifest.xml:5:5-44
MERGED from [:flutter_plugin_android_lifecycle] C:\Users\christos\android\payment-app\build\flutter_plugin_android_lifecycle\intermediates\library_manifest\debug\AndroidManifest.xml:5:5-44
MERGED from [:geolocator] C:\Users\christos\android\payment-app\build\geolocator\intermediates\library_manifest\debug\AndroidManifest.xml:5:5-44
MERGED from [:geolocator] C:\Users\christos\android\payment-app\build\geolocator\intermediates\library_manifest\debug\AndroidManifest.xml:5:5-44
MERGED from [com.google.android.gms:play-services-maps:17.0.0] C:\Users\christos\.gradle\caches\transforms-2\files-2.1\faf3edd0a0a40b32e6c32885cc662e42\jetified-play-services-maps-17.0.0\AndroidManifest.xml:20:5-44
MERGED from [com.google.android.gms:play-services-maps:17.0.0] C:\Users\christos\.gradle\caches\transforms-2\files-2.1\faf3edd0a0a40b32e6c32885cc662e42\jetified-play-services-maps-17.0.0\AndroidManifest.xml:20:5-44
MERGED from [com.google.android.gms:play-services-location:17.0.0] C:\Users\christos\.gradle\caches\transforms-2\files-2.1\6ecbd03c0ba003b6c6cab88140d4ae56\jetified-play-services-location-17.0.0\AndroidManifest.xml:5:5-44
MERGED from [com.google.android.gms:play-services-location:17.0.0] C:\Users\christos\.gradle\caches\transforms-2\files-2.1\6ecbd03c0ba003b6c6cab88140d4ae56\jetified-play-services-location-17.0.0\AndroidManifest.xml:5:5-44
MERGED from [com.google.android.gms:play-services-base:17.0.0] C:\Users\christos\.gradle\caches\transforms-2\files-2.1\2631375de80937c90cd3a1032ab35871\jetified-play-services-base-17.0.0\AndroidManifest.xml:20:5-44
MERGED from [com.google.android.gms:play-services-base:17.0.0] C:\Users\christos\.gradle\caches\transforms-2\files-2.1\2631375de80937c90cd3a1032ab35871\jetified-play-services-base-17.0.0\AndroidManifest.xml:20:5-44
MERGED from [com.google.android.gms:play-services-places-placereport:17.0.0] C:\Users\christos\.gradle\caches\transforms-2\files-2.1\851cd8c44ebf76c5b47504ad4cc94222\jetified-play-services-places-placereport-17.0.0\AndroidManifest.xml:20:5-44
MERGED from [com.google.android.gms:play-services-places-placereport:17.0.0] C:\Users\christos\.gradle\caches\transforms-2\files-2.1\851cd8c44ebf76c5b47504ad4cc94222\jetified-play-services-places-placereport-17.0.0\AndroidManifest.xml:20:5-44
MERGED from [com.google.android.gms:play-services-tasks:17.0.0] C:\Users\christos\.gradle\caches\transforms-2\files-2.1\b7a1c6e780b5901c5c6ba597df670b7d\jetified-play-services-tasks-17.0.0\AndroidManifest.xml:5:5-44
MERGED from [com.google.android.gms:play-services-tasks:17.0.0] C:\Users\christos\.gradle\caches\transforms-2\files-2.1\b7a1c6e780b5901c5c6ba597df670b7d\jetified-play-services-tasks-17.0.0\AndroidManifest.xml:5:5-44
MERGED from [com.google.android.gms:play-services-basement:17.0.0] C:\Users\christos\.gradle\caches\transforms-2\files-2.1\dcffa74d8d015470a7eae32b9eb648c7\jetified-play-services-basement-17.0.0\AndroidManifest.xml:20:5-44
MERGED from [com.google.android.gms:play-services-basement:17.0.0] C:\Users\christos\.gradle\caches\transforms-2\files-2.1\dcffa74d8d015470a7eae32b9eb648c7\jetified-play-services-basement-17.0.0\AndroidManifest.xml:20:5-44
MERGED from [androidx.fragment:fragment:1.1.0] C:\Users\christos\.gradle\caches\transforms-2\files-2.1\ba80674a1a5fdce2b1b29eea5683af77\fragment-1.1.0\AndroidManifest.xml:20:5-22:41
MERGED from [androidx.fragment:fragment:1.1.0] C:\Users\christos\.gradle\caches\transforms-2\files-2.1\ba80674a1a5fdce2b1b29eea5683af77\fragment-1.1.0\AndroidManifest.xml:20:5-22:41
MERGED from [androidx.viewpager:viewpager:1.0.0] C:\Users\christos\.gradle\caches\transforms-2\files-2.1\2f70304b103eacfab05dbe55739e869f\viewpager-1.0.0\AndroidManifest.xml:20:5-44
MERGED from [androidx.viewpager:viewpager:1.0.0] C:\Users\christos\.gradle\caches\transforms-2\files-2.1\2f70304b103eacfab05dbe55739e869f\viewpager-1.0.0\AndroidManifest.xml:20:5-44
MERGED from [androidx.loader:loader:1.0.0] C:\Users\christos\.gradle\caches\transforms-2\files-2.1\49dee3543bc65746b6bba9f83aa0b18a\loader-1.0.0\AndroidManifest.xml:20:5-44
MERGED from [androidx.loader:loader:1.0.0] C:\Users\christos\.gradle\caches\transforms-2\files-2.1\49dee3543bc65746b6bba9f83aa0b18a\loader-1.0.0\AndroidManifest.xml:20:5-44
MERGED from [androidx.activity:activity:1.0.0] C:\Users\christos\.gradle\caches\transforms-2\files-2.1\68865d38a53fb5c240061f062e474515\jetified-activity-1.0.0\AndroidManifest.xml:20:5-22:41
MERGED from [androidx.activity:activity:1.0.0] C:\Users\christos\.gradle\caches\transforms-2\files-2.1\68865d38a53fb5c240061f062e474515\jetified-activity-1.0.0\AndroidManifest.xml:20:5-22:41
MERGED from [androidx.customview:customview:1.0.0] C:\Users\christos\.gradle\caches\transforms-2\files-2.1\86cf751735e9e9dd0416cce35c4a71a1\customview-1.0.0\AndroidManifest.xml:20:5-44
MERGED from [androidx.customview:customview:1.0.0] C:\Users\christos\.gradle\caches\transforms-2\files-2.1\86cf751735e9e9dd0416cce35c4a71a1\customview-1.0.0\AndroidManifest.xml:20:5-44
MERGED from [androidx.core:core:1.1.0] C:\Users\christos\.gradle\caches\transforms-2\files-2.1\d67cd79abd1ca209502f51c69d23182b\core-1.1.0\AndroidManifest.xml:20:5-22:41
MERGED from [androidx.core:core:1.1.0] C:\Users\christos\.gradle\caches\transforms-2\files-2.1\d67cd79abd1ca209502f51c69d23182b\core-1.1.0\AndroidManifest.xml:20:5-22:41
MERGED from [androidx.lifecycle:lifecycle-runtime:2.2.0] C:\Users\christos\.gradle\caches\transforms-2\files-2.1\b37a656be7da34e79d326523a32fbcaa\lifecycle-runtime-2.2.0\AndroidManifest.xml:20:5-22:41
MERGED from [androidx.lifecycle:lifecycle-runtime:2.2.0] C:\Users\christos\.gradle\caches\transforms-2\files-2.1\b37a656be7da34e79d326523a32fbcaa\lifecycle-runtime-2.2.0\AndroidManifest.xml:20:5-22:41
MERGED from [androidx.savedstate:savedstate:1.0.0] C:\Users\christos\.gradle\caches\transforms-2\files-2.1\29e9e6ac99026fff5bb21139b2ad74ac\jetified-savedstate-1.0.0\AndroidManifest.xml:20:5-22:41
MERGED from [androidx.savedstate:savedstate:1.0.0] C:\Users\christos\.gradle\caches\transforms-2\files-2.1\29e9e6ac99026fff5bb21139b2ad74ac\jetified-savedstate-1.0.0\AndroidManifest.xml:20:5-22:41
MERGED from [androidx.lifecycle:lifecycle-livedata:2.0.0] C:\Users\christos\.gradle\caches\transforms-2\files-2.1\15faa7fdc535e832982b4615d300cb77\lifecycle-livedata-2.0.0\AndroidManifest.xml:20:5-44
MERGED from [androidx.lifecycle:lifecycle-livedata:2.0.0] C:\Users\christos\.gradle\caches\transforms-2\files-2.1\15faa7fdc535e832982b4615d300cb77\lifecycle-livedata-2.0.0\AndroidManifest.xml:20:5-44
MERGED from [androidx.lifecycle:lifecycle-livedata-core:2.0.0] C:\Users\christos\.gradle\caches\transforms-2\files-2.1\033c1099bb4cd11be9138377da501d59\lifecycle-livedata-core-2.0.0\AndroidManifest.xml:20:5-44
MERGED from [androidx.lifecycle:lifecycle-livedata-core:2.0.0] C:\Users\christos\.gradle\caches\transforms-2\files-2.1\033c1099bb4cd11be9138377da501d59\lifecycle-livedata-core-2.0.0\AndroidManifest.xml:20:5-44
MERGED from [androidx.arch.core:core-runtime:2.0.0] C:\Users\christos\.gradle\caches\transforms-2\files-2.1\943631e3c5a6dfa67bece88add1d3fe3\core-runtime-2.0.0\AndroidManifest.xml:20:5-44
MERGED from [androidx.arch.core:core-runtime:2.0.0] C:\Users\christos\.gradle\caches\transforms-2\files-2.1\943631e3c5a6dfa67bece88add1d3fe3\core-runtime-2.0.0\AndroidManifest.xml:20:5-44
MERGED from [androidx.versionedparcelable:versionedparcelable:1.1.0] C:\Users\christos\.gradle\caches\transforms-2\files-2.1\af9af86a2035b10a0514f89f66cf8a9a\versionedparcelable-1.1.0\AndroidManifest.xml:20:5-22:41
MERGED from [androidx.versionedparcelable:versionedparcelable:1.1.0] C:\Users\christos\.gradle\caches\transforms-2\files-2.1\af9af86a2035b10a0514f89f66cf8a9a\versionedparcelable-1.1.0\AndroidManifest.xml:20:5-22:41
MERGED from [androidx.lifecycle:lifecycle-viewmodel:2.1.0] C:\Users\christos\.gradle\caches\transforms-2\files-2.1\2b6a4e71d38d3b36d0c903aac26cfd25\lifecycle-viewmodel-2.1.0\AndroidManifest.xml:20:5-44
MERGED from [androidx.lifecycle:lifecycle-viewmodel:2.1.0] C:\Users\christos\.gradle\caches\transforms-2\files-2.1\2b6a4e71d38d3b36d0c903aac26cfd25\lifecycle-viewmodel-2.1.0\AndroidManifest.xml:20:5-44
INJECTED from C:\Users\christos\android\payment-app\android\app\src\debug\AndroidManifest.xml
INJECTED from C:\Users\christos\android\payment-app\android\app\src\debug\AndroidManifest.xml
	android:targetSdkVersion
		INJECTED from C:\Users\christos\android\payment-app\android\app\src\main\AndroidManifest.xml
		INJECTED from C:\Users\christos\android\payment-app\android\app\src\debug\AndroidManifest.xml
	android:minSdkVersion
		INJECTED from C:\Users\christos\android\payment-app\android\app\src\main\AndroidManifest.xml
		INJECTED from C:\Users\christos\android\payment-app\android\app\src\debug\AndroidManifest.xml
uses-permission#android.permission.INTERNET
ADDED from C:\Users\christos\android\payment-app\android\app\src\debug\AndroidManifest.xml:6:5-66
MERGED from [com.google.android.gms:play-services-maps:17.0.0] C:\Users\christos\.gradle\caches\transforms-2\files-2.1\faf3edd0a0a40b32e6c32885cc662e42\jetified-play-services-maps-17.0.0\AndroidManifest.xml:24:5-67
MERGED from [com.google.android.gms:play-services-maps:17.0.0] C:\Users\christos\.gradle\caches\transforms-2\files-2.1\faf3edd0a0a40b32e6c32885cc662e42\jetified-play-services-maps-17.0.0\AndroidManifest.xml:24:5-67
	android:name
		ADDED from C:\Users\christos\android\payment-app\android\app\src\debug\AndroidManifest.xml:6:22-64
uses-permission#android.permission.ACCESS_NETWORK_STATE
ADDED from [com.google.android.gms:play-services-maps:17.0.0] C:\Users\christos\.gradle\caches\transforms-2\files-2.1\faf3edd0a0a40b32e6c32885cc662e42\jetified-play-services-maps-17.0.0\AndroidManifest.xml:23:5-79
	android:name
		ADDED from [com.google.android.gms:play-services-maps:17.0.0] C:\Users\christos\.gradle\caches\transforms-2\files-2.1\faf3edd0a0a40b32e6c32885cc662e42\jetified-play-services-maps-17.0.0\AndroidManifest.xml:23:22-76
uses-feature#0x00020000
ADDED from [com.google.android.gms:play-services-maps:17.0.0] C:\Users\christos\.gradle\caches\transforms-2\files-2.1\faf3edd0a0a40b32e6c32885cc662e42\jetified-play-services-maps-17.0.0\AndroidManifest.xml:26:5-28:35
	android:glEsVersion
		ADDED from [com.google.android.gms:play-services-maps:17.0.0] C:\Users\christos\.gradle\caches\transforms-2\files-2.1\faf3edd0a0a40b32e6c32885cc662e42\jetified-play-services-maps-17.0.0\AndroidManifest.xml:27:9-41
	android:required
		ADDED from [com.google.android.gms:play-services-maps:17.0.0] C:\Users\christos\.gradle\caches\transforms-2\files-2.1\faf3edd0a0a40b32e6c32885cc662e42\jetified-play-services-maps-17.0.0\AndroidManifest.xml:28:9-32
uses-library#org.apache.http.legacy
ADDED from [com.google.android.gms:play-services-maps:17.0.0] C:\Users\christos\.gradle\caches\transforms-2\files-2.1\faf3edd0a0a40b32e6c32885cc662e42\jetified-play-services-maps-17.0.0\AndroidManifest.xml:33:9-35:40
	android:required
		ADDED from [com.google.android.gms:play-services-maps:17.0.0] C:\Users\christos\.gradle\caches\transforms-2\files-2.1\faf3edd0a0a40b32e6c32885cc662e42\jetified-play-services-maps-17.0.0\AndroidManifest.xml:35:13-37
	android:name
		ADDED from [com.google.android.gms:play-services-maps:17.0.0] C:\Users\christos\.gradle\caches\transforms-2\files-2.1\faf3edd0a0a40b32e6c32885cc662e42\jetified-play-services-maps-17.0.0\AndroidManifest.xml:34:13-50
activity#com.google.android.gms.common.api.GoogleApiActivity
ADDED from [com.google.android.gms:play-services-base:17.0.0] C:\Users\christos\.gradle\caches\transforms-2\files-2.1\2631375de80937c90cd3a1032ab35871\jetified-play-services-base-17.0.0\AndroidManifest.xml:23:9-26:75
	android:exported
		ADDED from [com.google.android.gms:play-services-base:17.0.0] C:\Users\christos\.gradle\caches\transforms-2\files-2.1\2631375de80937c90cd3a1032ab35871\jetified-play-services-base-17.0.0\AndroidManifest.xml:25:13-37
	android:theme
		ADDED from [com.google.android.gms:play-services-base:17.0.0] C:\Users\christos\.gradle\caches\transforms-2\files-2.1\2631375de80937c90cd3a1032ab35871\jetified-play-services-base-17.0.0\AndroidManifest.xml:26:13-72
	android:name
		ADDED from [com.google.android.gms:play-services-base:17.0.0] C:\Users\christos\.gradle\caches\transforms-2\files-2.1\2631375de80937c90cd3a1032ab35871\jetified-play-services-base-17.0.0\AndroidManifest.xml:24:13-79
meta-data#com.google.android.gms.version
ADDED from [com.google.android.gms:play-services-basement:17.0.0] C:\Users\christos\.gradle\caches\transforms-2\files-2.1\dcffa74d8d015470a7eae32b9eb648c7\jetified-play-services-basement-17.0.0\AndroidManifest.xml:23:9-25:69
	android:value
		ADDED from [com.google.android.gms:play-services-basement:17.0.0] C:\Users\christos\.gradle\caches\transforms-2\files-2.1\dcffa74d8d015470a7eae32b9eb648c7\jetified-play-services-basement-17.0.0\AndroidManifest.xml:25:13-66
	android:name
		ADDED from [com.google.android.gms:play-services-basement:17.0.0] C:\Users\christos\.gradle\caches\transforms-2\files-2.1\dcffa74d8d015470a7eae32b9eb648c7\jetified-play-services-basement-17.0.0\AndroidManifest.xml:24:13-58
